{
    "stat":"ok",
    "tasks":{
        "rev":"5drvz9d1vsw0kkok8k0wg44gwosggk0",
        "list":[
            {
                "id":"20007417",
                "taskseries":{
                    "id":"136719441",
                    "created":"2011-10-26T14:07:59Z",
                    "modified":"2012-06-24T17:35:13Z",
                    "name":"Extract testing modules from the project",
                    "source":"js",
                    "url":"",
                    "location_id":"",
                    "tags":[],
                    "participants":[],
                    "notes":{
                        "note":{
                            "id":"31245036",
                            "created":"2012-06-24T17:35:13Z",
                            "modified":"2012-06-24T17:35:13Z",
                            "title":"pomodoro",
                            "$t":"[][][][]"
                        }
                    },
                    "task":{
                        "id":"213664343",
                        "due":"2012-06-23T21:00:00Z",
                        "has_due_time":"0",
                        "added":"2011-10-26T14:07:59Z",
                        "completed":"",
                        "deleted":"",
                        "priority":"N",
                        "postponed":"1",
                        "estimate":""
                    }
                }
            }
        ]
    }
}